[
  {
    "sheet": "Template1",
    "header": [
       {
          "name": "Action",
          "as": "action"
       },
       {
          "name": "Id",
          "as": "id"
       },
       {
          "name": "Read Only",
          "as": "readOnly"
       },
       {
          "name": "String",
          "as": "string"
       },
       {
          "name": "Float",
          "as": "float"
       },
       {
          "name": "Enum1",
          "as": "enum1"
       },
       {
          "name": "Unknown",
          "as": "unknown"
       }
    ],
    "data": [
      {
        "action": "CREATE",
        "id": "ERASE",
        "readOnly": "ERASE",
        "string": "XXX",
        "float": 10.0,
        "unknown": "xxx"
      },
      {
        "action": "UPDATE",
        "id": "XXX",
        "readOnly": "YYY",
        "string": "YYY",
        "float": 11.0,
        "enum1": "D"
      },
      {
        "action": "DELETE",
        "string": "ZZZ",
        "float": "AAA",
        "enum1": "A"
      },
      {
        "action": "XXX"
      },
      {
        "action": "DELETE",
        "string": "ERASE",
        "float": "ERASE"
      },
      {
        "action": "UPDATE",
        "string": "ERASE",
        "float": "ERASE"
      },
      {
        "action": "CREATE",
        "string": "ERASE",
        "float": "ERASE"
      }
    ]
  },
  {
    "sheet": "Template2",
    "header": [
       {
          "name": "Action",
          "as": "action"
       }
    ],
    "data": [
      {
        "action": ""
      }
    ]
  },
  {
    "sheet": "Template3",
    "header": [],
    "data": []
  },
  {
    "sheet": "Template1#A",
    "header": [
       {
          "name": "Action",
          "as": "action"
       },
       {
          "name": "String",
          "as": "string"
       },
       {
          "name": "Float",
          "as": "float"
       }
    ],
    "data": [
      {
        "action": "CREATE",
        "string": "XXX",
        "float": 10.0
      },
      {
        "action": "UPDATE",
        "string": "YYY",
        "float": 9
      },
      {
        "action": "DELETE",
        "string": "ZZZ",
        "float": "AAA"
      }
    ]
  }
]